<?xml version="1.0" encoding="utf-8"?>
<svg viewBox="0 0 500 500" xmlns="http://www.w3.org/2000/svg">
  <path d="M 184.059 426.237 C 177.696 446.707 158.68 461.491 135.961 461.491 C 107.665 461.491 84.336 438.558 83.856 410.27 C 83.615 396.027 89.212 383.141 98.441 373.857 C 106.704 391.824 124.909 404.359 145.829 404.359 C 148.443 404.359 151.008 404.163 153.511 403.786 C 160.46 414.662 171.328 422.819 184.059 426.237 Z" style="vector-effect: non-scaling-stroke; stroke-linejoin: round; stroke-width: 5; fill: rgb(255, 255, 255);" transform="matrix(0.998354, 0.057351, -0.057351, 0.998354, 24.174226, -6.988206)"/>
  <path d="M 200.992 350.821 C 200.722 378.147 178.727 400.059 151.203 400.059 C 123.187 400.059 100.054 377.356 99.532 349.349 C 99.145 328.527 111.366 310.636 129.176 302.828 C 138.802 315.943 154.32 324.492 171.679 324.492 C 176.722 324.492 181.583 323.77 186.166 322.425 C 188.059 333.412 193.39 343.26 200.992 350.821 Z" style="vector-effect: non-scaling-stroke; stroke-linejoin: round; stroke-width: 5; fill: rgb(255, 255, 255);" transform="matrix(0.994927, 0.100599, -0.100599, 0.994927, 36.116125, -13.313877)"/>
  <path d="M 257.9 376.154 C 259.63 404.389 238.141 428.638 209.904 430.318 C 191.127 431.436 174.095 422.291 164.281 407.738 C 187.251 402.697 203.118 384.301 203.41 360.421 C 212.538 371.417 227.278 376.487 242.686 376.487 C 247.934 376.487 252.991 375.674 257.74 374.17 C 257.805 374.828 257.858 375.49 257.9 376.154 Z" style="vector-effect: non-scaling-stroke; stroke-linejoin: round; stroke-width: 5; fill: rgb(255, 255, 255);"/>
  <path d="M 218.474 289.128 C 211.118 314.956 184.846 327.72 159.795 317.637 C 134.743 307.555 120.399 278.446 127.756 252.618 C 130.425 243.246 135.586 235.593 142.278 230.128 C 150.729 245.527 167.097 255.967 185.903 255.967 C 191.27 255.967 196.436 255.116 201.278 253.544 C 205.253 262.772 210.005 267.667 218.435 272.957 C 218.379 277.411 219.719 284.755 218.474 289.128 Z" style="vector-effect: non-scaling-stroke; stroke-linejoin: round; stroke-width: 5; fill: rgb(255, 255, 255);" transform="matrix(0.999943, 0.010664, -0.010664, 0.999943, 2.984226, -1.801324)"/>
  <path d="M 285.617 344.773 C 277.562 358.954 262.86 369.142 245.601 370.643 C 218.428 373.005 195.213 352.942 193.744 325.828 C 193.676 324.573 193.656 323.324 193.684 322.084 C 211.329 314.177 223.629 296.545 224.045 276.674 C 225.038 276.228 226.048 275.815 227.071 275.434 C 231.713 278.19 236.824 280.24 242.247 281.434 C 240.892 285.936 240.164 290.71 240.164 295.654 C 240.164 321.579 260.19 342.827 285.617 344.773 Z" style="vector-effect: non-scaling-stroke; stroke-linejoin: round; stroke-width: 5; fill: rgb(255, 255, 255);" transform="matrix(0.999567, -0.029414, 0.029414, 0.999567, -9.432928, 7.188972)"/>
  <path d="M 358.075 54.908 L 393.586 84.88 L 312.355 155.471 L 300.348 149.227 L 358.075 54.908 Z" style="stroke-width: 0; fill: rgb(255, 255, 255);"/>
  <path d="M 244.255 24.516 L 256.562 104.238 C 272.927 121.725 303.197 125.153 294.247 79.673 C 290.134 58.767 267.993 33.032 244.255 24.516 Z" style="stroke-width: 1.044; fill: rgb(255, 255, 255);" transform="matrix(-0.698139, 0.715962, -0.715962, -0.698139, 518.403538, -68.898037)"/>
  <path d="M 272.415 88.424 L 284.432 10.582 C 300.41 -6.492 329.967 -9.84 321.228 34.568 C 317.211 54.981 295.593 80.11 272.415 88.424 Z" style="stroke-width: 1.044; fill: rgb(255, 255, 255);" transform="matrix(0.456141, -0.889907, 0.889907, 0.456141, 128.839079, 289.401387)"/>
  <path d="M 198.787 246.749 C 193.258 248.186 190.3 252.618 184.286 252.17 C 154.91 249.982 131.901 220.527 134.09 191.15 C 134.518 185.372 135.856 179.877 137.947 174.796 C 147.122 189.374 163.356 199.062 181.854 199.062 C 188.21 199.062 194.301 197.917 199.93 195.824 C 202.244 199.342 203.048 198.698 206.127 201.549 C 201.322 208.868 195.356 216.509 194.659 225.858 C 194.248 231.39 197.594 241.615 198.787 246.749 Z" style="fill: rgb(255, 255, 255);"/>
  <path d="M 260.592 252.48 C 252.474 258.589 246.516 267.315 243.9 277.347 C 220.668 275.746 201.58 257.067 200.141 233.386 C 199.504 222.888 202.436 213.042 207.889 205.008 C 215.724 210.959 225.39 214.585 235.779 214.892 C 238.001 230.838 247.392 244.487 260.592 252.48 Z" style="fill: rgb(255, 255, 255);"/>
  <path d="M 240.492 208.612 C 239.567 208.668 238.629 208.697 237.689 208.697 C 212.529 208.697 192.134 188.3 192.134 163.141 C 192.134 137.982 212.529 117.586 237.689 117.586 C 258.189 117.586 275.526 131.125 281.244 149.75 C 257.638 155.401 240.087 176.643 240.087 201.983 C 240.087 204.227 240.226 206.438 240.492 208.612 Z" transform="matrix(0.997443, 0.071471, -0.071471, 0.997443, 12.265178, -16.499195)" style="fill: rgb(255, 255, 255);"/>
  <path d="M 336.57 312.079 C 327.577 331.829 305.803 343.441 283.845 338.769 C 258.587 333.396 242.65 308.514 248.249 283.194 C 250.589 272.609 256.322 263.624 264.048 257.142 C 272.34 262.388 282.182 265.423 292.759 265.423 C 298.148 265.423 303.359 264.635 308.284 263.168 C 308.245 263.927 302.859 275.332 309.814 286.742 C 323.877 309.814 319.596 303.496 336.57 312.079 Z" transform="matrix(0.999849, -0.017386, 0.017386, 0.999849, -5.177022, 5.080476)" style="fill: rgb(255, 255, 255);"/>
  <path d="M 196.364 188.102 C 191.213 189.935 183.735 191.024 177.954 191.024 C 150.806 191.024 128.661 166.121 128.661 138.973 C 128.661 111.825 150.669 89.815 177.817 89.815 C 196.097 89.815 212.047 99.794 220.516 114.601 C 201.474 121.375 187.84 139.559 187.84 160.926 C 187.84 169.795 192.255 180.919 196.364 188.102 Z" transform="matrix(0.998889, 0.047135, -0.047135, 0.998889, 6.744493, -8.074762)" style="fill: rgb(255, 255, 255);"/>
  <path d="M 423.206 258.871 C 423.97 261.27 420.833 269.643 420.344 272.05 C 405.724 278.339 384.874 295.434 381.644 311.382 C 375.779 313.905 371.3 313.382 364.616 313.382 C 338.748 313.382 318.698 292.419 319.836 266.559 C 320.973 240.698 344.799 218.777 368.73 219.735 C 392.661 220.693 413.731 229.101 423.206 258.871 Z" transform="matrix(-0.999991, 0.004199, -0.004199, -0.999991, 734.461986, 531.575022)" style="fill: rgb(255, 255, 255);"/>
  <ellipse cx="294.887" cy="207.976" rx="52.65" ry="52.65" style="fill: rgb(255, 255, 255);"/>
</svg>